city,inhabitants,amountBikes,inhabSortDescPos,bikesSortDescPos,inhabMinusBikes,permalink
Wiesbaden,278654,188,3,4,-1,wiesbaden
Hamburg,1830584,85,1,6,-5,hamburg
Muenchen,1456039,57,2,8,-6,muenchen
Flensburg,88519,42,7,10,-3,flensburg
Offenburg,59060,99,11,5,6,offenburg
Potsdam,175710,292,4,1,3,potsdam
Guetersloh,99315,21,6,12,-6,guetersloh
Norderstedt,78679,255,8,2,6,norderstedt
Quickborn,21056,35,12,11,1,quickborn
Wuerzburg,126635,80,5,7,-2,wuerzburg
Marburg,76226,233,9,3,6,marburg
"Ruesselsheim am Main",64922,51,10,9,1,ruesselsheimammain
